<svg width="14" height="14" viewBox="0 0 14 14" fill="none" xmlns="http://www.w3.org/2000/svg">
<circle cx="7" cy="7" r="7" fill="#508F00"/>
<path d="M4 7.6L6.15385 10L11 4" stroke="white" stroke-linecap="round" stroke-linejoin="round"/>
</svg>
