<svg width="14" height="14" viewBox="0 0 14 14" fill="none" xmlns="http://www.w3.org/2000/svg">
<circle cx="7" cy="7" r="7" fill="#0172b1"/>
<path d="M3.51596 6.34589C3.61058 6.50828 3.81271 6.6214 4.01571 6.56159L4.83162 6.33569C5.07828 6.26741 5.22772 5.99291 5.16541 5.72259C5.11191 5.4905 4.91957 5.33737 4.71019 5.34185C5.20898 4.52826 6.05653 4.00966 6.9856 4.00966C8.17965 4.00966 9.22727 4.8458 9.59253 6.09025C9.67045 6.35565 9.92979 6.50168 10.1721 6.41627C10.4143 6.33088 10.5475 6.04653 10.4696 5.78112C9.98139 4.11766 8.58128 3 6.98563 3C5.66445 3 4.46604 3.78464 3.82183 4.99463C3.67734 4.79427 3.41517 4.74197 3.21399 4.88181C2.99914 5.03114 2.93544 5.34309 3.0717 5.57851L3.51387 6.34253L3.51596 6.34589Z" fill="white"/>
<path d="M10.4905 7.66501C10.3964 7.5003 10.1988 7.37577 9.98429 7.43841L9.16838 7.66427C8.92172 7.73255 8.77228 8.00705 8.83459 8.27737C8.88735 8.50619 9.0749 8.65869 9.28088 8.65869C9.28379 8.65869 9.28674 8.65845 9.28966 8.65838C8.79083 9.47184 7.94335 9.9903 7.0144 9.9903C5.82038 9.9903 4.77276 9.15416 4.40747 7.90972C4.32955 7.64431 4.07005 7.49828 3.82787 7.58373C3.58569 7.66911 3.4525 7.95347 3.53041 8.21891C4.01864 9.88237 5.41875 11 7.01437 11C8.33555 11 9.53396 10.2154 10.1782 9.00541C10.3227 9.20576 10.5849 9.25802 10.786 9.11822C11.0009 8.96886 11.0646 8.65694 10.9283 8.42152L10.4905 7.66501Z" fill="white"/>
</svg>
