{
  "project_info": {
    "project_number": "661108533887",
    "project_id": "smarttravel-4bba9",
    "storage_bucket": "smarttravel-4bba9.appspot.com"
  },
  "client": [
    {
      "client_info": {
        "mobilesdk_app_id": "1:661108533887:android:262ce09856dc3be5432d4a",
        "android_client_info": {
          "package_name": "travelapp.smarttravels.smart_travel"
        }
      },
      "oauth_client": [
        {
          "client_id": "661108533887-308451llbp4de052cau7h1p91dohlar2.apps.googleusercontent.com",
          "client_type": 1,
          "android_info": {
            "package_name": "travelapp.smarttravels.smart_travel",
            "certificate_hash": "9d6645d4115e1ff8c5b820d201017b2a0be4e8fc"
          }
        },
        {
          "client_id": "661108533887-mig15k7egh831dtgpoq4vbf627aqngkv.apps.googleusercontent.com",
          "client_type": 3
        }
      ],
      "api_key": [
        {
          "current_key": "AIzaSyAvLF1gQyuCZyccgriQUfAX9sDhBmkLWpE"
        }
      ],
      "services": {
        "appinvite_service": {
          "other_platform_oauth_client": [
            {
              "client_id": "661108533887-mig15k7egh831dtgpoq4vbf627aqngkv.apps.googleusercontent.com",
              "client_type": 3
            }
          ]
        }
      }
    }
  ],
  "configuration_version": "1"
}